%YAML 1.1
%TAG !u! tag:unity3d.com,2011:
--- !u!114 &11400000
MonoBehaviour:
  m_ObjectHideFlags: 0
  m_CorrespondingSourceObject: {fileID: 0}
  m_PrefabInstance: {fileID: 0}
  m_PrefabAsset: {fileID: 0}
  m_GameObject: {fileID: 0}
  m_Enabled: 1
  m_EditorHideFlags: 0
  m_Script: {fileID: 11500000, guid: e04d9fed2c0c49d47b30576ed7ba55d1, type: 3}
  m_Name: ObjectPool
  m_EditorClassIdentifier: 
  poolName: Pool
  poolItems:
  - prefab: {fileID: 8509368606339972574, guid: f895a7c9375b5b74b953bc0f66f3a8fa,
      type: 3}
    size: 100
  - prefab: {fileID: 4276293240367841576, guid: 84a177ea27e434147a9353206294fb91,
      type: 3}
    size: 100
  - prefab: {fileID: 114031661505080208, guid: 15a657d58555ded448eba756df21dca4, type: 3}
    size: 50
  - prefab: {fileID: 4961632553868684384, guid: 49d40aa79f180e04180cabb033c9f919,
      type: 3}
    size: 20
  - prefab: {fileID: 7631513004707784601, guid: 6fe23fc53f6dc5c4c86961e6a3bbdc9c,
      type: 3}
    size: 5
